hdl/system_c/mp2/mp2/wave1.vcd
$date
     Mar 19, 2020       22:30:29
$end

$version
 SystemC 2.3.1-Accellera --- Mar  1 2020 18:17:32
$end

$timescale
     1 ps
$end

$scope module SystemC $end
$var wire    1  aaaaa  i_en       $end
$var wire    8  aaaab  i_code_0 [7:0]  $end
$var wire    8  aaaac  i_code_1 [7:0]  $end
$var wire    8  aaaad  i_code_2 [7:0]  $end
$var wire    8  aaaae  i_code_3 [7:0]  $end
$var wire    2  aaaaf  i_sel_code [1:0]  $end
$var wire    8  aaaag  o_code [7:0]  $end
$upscope $end
$enddefinitions  $end

$comment
All initial values are dumped below at time 0 sec = 0 timescale units.
$end

$dumpvars
0aaaaa
b0 aaaab
b1 aaaac
b10 aaaad
b11 aaaae
b0 aaaaf
b10000 aaaag
$end

#10000
b1 aaaab
b10 aaaac
b11 aaaad
b100 aaaae
b1 aaaaf

#20000
b10 aaaab
b11 aaaac
b100 aaaad
b101 aaaae
b10 aaaaf

#30000
b11 aaaab
b100 aaaac
b101 aaaad
b110 aaaae
b11 aaaaf

#40000
b100 aaaab
b101 aaaac
b110 aaaad
b111 aaaae
b0 aaaaf

#50000
b101 aaaab
b110 aaaac
b111 aaaad
b1000 aaaae
b1 aaaaf

#60000
b110 aaaab
b111 aaaac
b1000 aaaad
b1001 aaaae
b10 aaaaf

#70000
b111 aaaab
b1000 aaaac
b1001 aaaad
b1010 aaaae
b11 aaaaf

#80000
b1000 aaaab
b1001 aaaac
b1010 aaaad
b1011 aaaae
b0 aaaaf

#90000
b1001 aaaab
b1010 aaaac
b1011 aaaad
b1100 aaaae
b1 aaaaf

