hdl/system_c/mp2/mp2/wave1.vcd
$date
     Mar 15, 2020       13:22:53
$end

$version
 SystemC 2.3.1-Accellera --- Mar  1 2020 18:17:32
$end

$timescale
     1 ps
$end

$scope module SystemC $end
$var wire    1  aaaaa  i_a       $end
$var wire    1  aaaab  i_b       $end
$var wire    1  aaaac  i_c       $end
$var wire    1  aaaad  i_d       $end
$var wire    1  aaaae  o_f       $end
$upscope $end
$enddefinitions  $end

$comment
All initial values are dumped below at time 0 sec = 0 timescale units.
$end

$dumpvars
0aaaaa
0aaaab
0aaaac
0aaaad
0aaaae
$end

#10000
1aaaaa
1aaaae

#20000
0aaaaa
1aaaab

#30000
1aaaaa

#40000
0aaaaa
0aaaab
1aaaac

#50000
1aaaaa

#60000
0aaaaa
1aaaab

#70000
1aaaaa

#80000
0aaaaa
0aaaab
0aaaac
1aaaad

#90000
1aaaaa

#100000
0aaaaa
1aaaab

#110000
1aaaaa

#120000
0aaaaa
0aaaab
1aaaac

#130000
1aaaaa

#140000
0aaaaa
1aaaab

#150000
1aaaaa

#160000
0aaaaa
0aaaab
0aaaac
0aaaad
0aaaae

#170000
1aaaaa
1aaaae

