hdl/system_c/mp2/mp2/wave1.vcd
$date
     Mar 20, 2020       00:01:22
$end

$version
 SystemC 2.3.1-Accellera --- Mar  1 2020 18:17:32
$end

$timescale
     1 ps
$end

$scope module SystemC $end
$var wire    1  aaaaa  i_en       $end
$var wire    4  aaaab  i_code [3:0]  $end
$var wire    2  aaaac  i_sel_code [1:0]  $end
$var wire    1  aaaad  o_f       $end
$upscope $end
$enddefinitions  $end

$comment
All initial values are dumped below at time 0 sec = 0 timescale units.
$end

$dumpvars
0aaaaa
b0 aaaab
b0 aaaac
1aaaad
$end

#10000
b1 aaaac

#20000
b10 aaaac

#30000
b11 aaaac

#40000
b1 aaaab
b0 aaaac

#50000
b1 aaaac

#60000
b10 aaaac

#70000
b11 aaaac

#80000
b10 aaaab
b0 aaaac

#90000
b1 aaaac

#100000
b10 aaaac

#110000
b11 aaaac

#120000
b11 aaaab
b0 aaaac

#130000
b1 aaaac

#140000
b10 aaaac

#150000
b11 aaaac

#160000
b100 aaaab
b0 aaaac

#170000
b1 aaaac

#180000
b10 aaaac

#190000
b11 aaaac

#200000
b101 aaaab
b0 aaaac

#210000
b1 aaaac

#220000
b10 aaaac

#230000
b11 aaaac

#240000
b110 aaaab
b0 aaaac

#250000
b1 aaaac

#260000
b10 aaaac

#270000
b11 aaaac

#280000
b111 aaaab
b0 aaaac

#290000
b1 aaaac

#300000
b10 aaaac

#310000
b11 aaaac

#320000
b1000 aaaab
b0 aaaac

#330000
b1 aaaac

#340000
b10 aaaac

#350000
b11 aaaac

#360000
b1001 aaaab
b0 aaaac

#370000
b1 aaaac

#380000
b10 aaaac

#390000
b11 aaaac

#400000
b1010 aaaab
b0 aaaac

#410000
b1 aaaac

#420000
b10 aaaac

#430000
b11 aaaac

#440000
b1011 aaaab
b0 aaaac

#450000
b1 aaaac

#460000
b10 aaaac

#470000
b11 aaaac

#480000
b1100 aaaab
b0 aaaac

#490000
b1 aaaac

#500000
b10 aaaac

#510000
b11 aaaac

#520000
b1101 aaaab
b0 aaaac

#530000
b1 aaaac

#540000
b10 aaaac

#550000
b11 aaaac

#560000
b1110 aaaab
b0 aaaac

#570000
b1 aaaac

#580000
b10 aaaac

#590000
b11 aaaac

#600000
b1111 aaaab
b0 aaaac

#610000
b1 aaaac

#620000
b10 aaaac

#630000
b11 aaaac

#640000
b0 aaaab
b0 aaaac

#650000
b1 aaaac

#660000
b10 aaaac

#670000
b11 aaaac

