hdl/system_c/mp2/mp2/wave1.vcd
$date
     Mar 19, 2020       22:16:20
$end

$version
 SystemC 2.3.1-Accellera --- Mar  1 2020 18:17:32
$end

$timescale
     1 ps
$end

$scope module SystemC $end
$var wire    1  aaaaa  i_a       $end
$var wire    8  aaaab  i_sel_code [7:0]  $end
$var wire    8  aaaac  o_code [7:0]  $end
$upscope $end
$enddefinitions  $end

$comment
All initial values are dumped below at time 0 sec = 0 timescale units.
$end

$dumpvars
0aaaaa
b11111111 aaaab
bXXXXXXXX aaaac
$end

#10000
1aaaaa
b0 aaaab
b0 aaaac

#20000
0aaaaa
b1 aaaab

#30000
1aaaaa
b10 aaaab
b10 aaaac

#40000
0aaaaa
b11 aaaab

#50000
1aaaaa
b100 aaaab
b100 aaaac

#60000
0aaaaa
b101 aaaab

#70000
1aaaaa
b110 aaaab
b110 aaaac

#80000
0aaaaa
b111 aaaab

#90000
1aaaaa
b1000 aaaab
b1000 aaaac

#100000
0aaaaa
b1001 aaaab

#110000
1aaaaa
b1010 aaaab
b1010 aaaac

#120000
0aaaaa
b1011 aaaab

#130000
1aaaaa
b1100 aaaab
b1100 aaaac

#140000
0aaaaa
b1101 aaaab

#150000
1aaaaa
b1110 aaaab
b1110 aaaac

#160000
0aaaaa
b1111 aaaab

#170000
1aaaaa
b10000 aaaab
b10000 aaaac

#180000
0aaaaa
b10001 aaaab

#190000
1aaaaa
b10010 aaaab
b10010 aaaac

#200000
0aaaaa
b10011 aaaab

#210000
1aaaaa
b10100 aaaab
b10100 aaaac

#220000
0aaaaa
b10101 aaaab

#230000
1aaaaa
b10110 aaaab
b10110 aaaac

#240000
0aaaaa
b10111 aaaab

#250000
1aaaaa
b11000 aaaab
b11000 aaaac

#260000
0aaaaa
b11001 aaaab

#270000
1aaaaa
b11010 aaaab
b11010 aaaac

#280000
0aaaaa
b11011 aaaab

#290000
1aaaaa
b11100 aaaab
b11100 aaaac

#300000
0aaaaa
b11101 aaaab

#310000
1aaaaa
b11110 aaaab
b11110 aaaac

#320000
0aaaaa
b11111 aaaab

#330000
1aaaaa
b100000 aaaab
b100000 aaaac

#340000
0aaaaa
b100001 aaaab

#350000
1aaaaa
b100010 aaaab
b100010 aaaac

#360000
0aaaaa
b100011 aaaab

#370000
1aaaaa
b100100 aaaab
b100100 aaaac

#380000
0aaaaa
b100101 aaaab

#390000
1aaaaa
b100110 aaaab
b100110 aaaac

#400000
0aaaaa
b100111 aaaab

#410000
1aaaaa
b101000 aaaab
b101000 aaaac

#420000
0aaaaa
b101001 aaaab

#430000
1aaaaa
b101010 aaaab
b101010 aaaac

#440000
0aaaaa
b101011 aaaab

#450000
1aaaaa
b101100 aaaab
b101100 aaaac

#460000
0aaaaa
b101101 aaaab

#470000
1aaaaa
b101110 aaaab
b101110 aaaac

#480000
0aaaaa
b101111 aaaab

#490000
1aaaaa
b110000 aaaab
b110000 aaaac

#500000
0aaaaa
b110001 aaaab

#510000
1aaaaa
b110010 aaaab
b110010 aaaac

#520000
0aaaaa
b110011 aaaab

#530000
1aaaaa
b110100 aaaab
b110100 aaaac

#540000
0aaaaa
b110101 aaaab

#550000
1aaaaa
b110110 aaaab
b110110 aaaac

#560000
0aaaaa
b110111 aaaab

#570000
1aaaaa
b111000 aaaab
b111000 aaaac

#580000
0aaaaa
b111001 aaaab

#590000
1aaaaa
b111010 aaaab
b111010 aaaac

#600000
0aaaaa
b111011 aaaab

#610000
1aaaaa
b111100 aaaab
b111100 aaaac

#620000
0aaaaa
b111101 aaaab

#630000
1aaaaa
b111110 aaaab
b111110 aaaac

#640000
0aaaaa
b111111 aaaab

#650000
1aaaaa
b1000000 aaaab
b1000000 aaaac

#660000
0aaaaa
b1000001 aaaab

#670000
1aaaaa
b1000010 aaaab
b1000010 aaaac

#680000
0aaaaa
b1000011 aaaab

#690000
1aaaaa
b1000100 aaaab
b1000100 aaaac

#700000
0aaaaa
b1000101 aaaab

#710000
1aaaaa
b1000110 aaaab
b1000110 aaaac

#720000
0aaaaa
b1000111 aaaab

#730000
1aaaaa
b1001000 aaaab
b1001000 aaaac

#740000
0aaaaa
b1001001 aaaab

#750000
1aaaaa
b1001010 aaaab
b1001010 aaaac

#760000
0aaaaa
b1001011 aaaab

#770000
1aaaaa
b1001100 aaaab
b1001100 aaaac

#780000
0aaaaa
b1001101 aaaab

#790000
1aaaaa
b1001110 aaaab
b1001110 aaaac

#800000
0aaaaa
b1001111 aaaab

#810000
1aaaaa
b1010000 aaaab
b1010000 aaaac

