hdl/system_c/mp2/mp2/wave1.vcd
$date
     Mar 18, 2020       20:48:33
$end

$version
 SystemC 2.3.1-Accellera --- Mar  1 2020 18:17:32
$end

$timescale
     1 ps
$end

$scope module SystemC $end
$var wire    4  aaaaa  i_code [3:0]  $end
$var wire    1  aaaab  i_b       $end
$var wire    1  aaaac  i_c       $end
$var wire    1  aaaad  i_d       $end
$var wire    1  aaaae  o_f       $end
$upscope $end
$enddefinitions  $end

$comment
All initial values are dumped below at time 0 sec = 0 timescale units.
$end

$dumpvars
b0 aaaaa
0aaaab
0aaaac
0aaaad
0aaaae
$end

#10000
b1 aaaaa

#20000
b10 aaaaa

#30000
b11 aaaaa

#40000
b100 aaaaa

#50000
b101 aaaaa

#60000
b110 aaaaa

#70000
b111 aaaaa

#80000
b1000 aaaaa
1aaaae

#90000
b1001 aaaaa

#100000
b1010 aaaaa

#110000
b1011 aaaaa

#120000
b1100 aaaaa

#130000
b1101 aaaaa

#140000
b1110 aaaaa

#150000
b1111 aaaaa

#160000
b0 aaaaa
0aaaae

#170000
b1 aaaaa

