hdl/system_c/mp2/mp2/wave1.vcd
$date
     Mar 19, 2020       23:06:54
$end

$version
 SystemC 2.3.1-Accellera --- Mar  1 2020 18:17:32
$end

$timescale
     1 ps
$end

$scope module SystemC $end
$var wire    1  aaaaa  i_en       $end
$var wire    4  aaaab  i_code [3:0]  $end
$var wire    1  aaaac  o_A       $end
$var wire    1  aaaad  o_L       $end
$var wire    1  aaaae  o_B       $end
$upscope $end
$enddefinitions  $end

$comment
All initial values are dumped below at time 0 sec = 0 timescale units.
$end

$dumpvars
0aaaaa
b0 aaaab
1aaaac
1aaaad
1aaaae
$end

#10000
1aaaaa
b1 aaaab

#20000
0aaaaa
b10 aaaab

#30000
1aaaaa
b11 aaaab

#40000
0aaaaa
b100 aaaab

#50000
1aaaaa
b101 aaaab

#60000
0aaaaa
b110 aaaab

#70000
1aaaaa
b111 aaaab

#80000
0aaaaa
b1000 aaaab

#90000
1aaaaa
b1001 aaaab

#100000
0aaaaa
b1010 aaaab

#110000
1aaaaa
b1011 aaaab

#120000
0aaaaa
b1100 aaaab

#130000
1aaaaa
b1101 aaaab

#140000
0aaaaa
b1110 aaaab

#150000
1aaaaa
b1111 aaaab

#160000
0aaaaa
b0 aaaab

